A Model of Typical Weekday Sleeping Hours using Depression, Sex, and Race
…
check
check
Interview and examination status of the participant, should be ‘both interviewed and MEC examined’ for all subjects
RIDSTATR

3.2 Analytic Tibble

Code

study2

# A tibble: 4,870 × 10
   seqn     age sex    race               depr   alcohol smoke   bmi sleep check
   <chr>  <dbl> <fct>  <fct>              <fct>  <fct>   <fct> <dbl> <dbl> <fct>
 1 130379    66 Male   Non-Hispanic White Not a… No      Non-…  33.5   9   Both…
 2 130380    44 Female Hispanic           Not a… No      Smok…  29.7   8   Both…
 3 130386    34 Male   Hispanic           Not a… No      Non-…  30.2   7.5 Both…
 4 130387    68 Female Non-Hispanic White Not a… No      Non-…  42.6   3   Both…
 5 130389    59 Male   Non-Hispanic White Not a… No      Non-…  28     8   Both…
 6 130391    33 Female Non-Hispanic White Nearl… No      Smok…  38.9   7.5 Both…
 7 130392    74 Female Non-Hispanic White Not a… No      Non-…  43     9   Both…
 8 130393    39 Male   Non-Hispanic White Not a… No      Non-…  46.1   7   Both…
 9 130394    51 Male   Non-Hispanic White Not a… No      Non-…  24.4   8   Both…
10 130395    33 Female Other              Sever… No      Non-…  54.6   7.5 Both…
# ℹ 4,860 more rows
…
