How Age and Education Level Predict Who is More Likely to Receive a Flu Shot
…
set.seed(432)

brfss_2024 <- brfss_2024_final |> slice_sample(n=2000, replace=FALSE)

Last, we take a sample of our larger data set so that we only have 2000 subjects in our final tibble.

4 The Tidy Tibble

4.1 Listing the Tibble

Code

brfss_2024

# A tibble: 2,000 × 12
   seqno     menthlth flushot   age sex     bmi genhlth depr  insur afford educ 
   <chr>        <dbl> <fct>   <dbl> <fct> <dbl> <fct>   <fct> <fct> <fct>  <fct>
 1 20240009…        0 Yes        72 Fema…  36.1 Good    No    Medi… No     Some…
 2 20240043…        0 No         78 Male   26.3 Fair    No    Other Yes    HS_o…
 3 20240046…       15 Yes        56 Male   30   Good    Yes   Other No     Coll…
 4 20240050…        0 Yes        69 Male   29.8 Good    No    Medi… No     Coll…
 5 20240096…        0 Yes        50 Fema…  NA   Excell… No    Priv… No     Some…
 6 20240060…        0 No         45 Male   30.5 Good    No    Priv… No     Some…
 7 20240057…        0 No         35 Fema…  37.1 Good    No    Priv… No     Some…
 8 20240077…       30 No         57 Male   15.9 Poor    Yes   Medi… No     Some…
 9 20240031…        4 Yes        26 Male   21.3 Excell… No    Priv… No     HS_o…
10 20240004…       10 Yes        65 Male   35.5 Fair    Yes   Medi… No     Coll…
# ℹ 1,990 more rows
# ℹ 1 more variable: rural <fct>
…
