Predicting Depression Severity and How it Affects Normal Functioning
…
nhanes_23 <- nhanes_raw |> slice_sample(n=2000, replace=FALSE)

Our sample included more than 2000 subjects, so we randomly select only 2000 of them for the final tibble.

3.3 Print and Save The Final Tibble

Code

write_rds(nhanes_23, "nhanes_23.Rds")

Code

nhanes_23

# A tibble: 2,000 × 11
   seqn     age female   bmi avg_alc diabetes   min_act avg_sleep depr_score
   <chr>  <dbl> <fct>  <dbl>   <dbl> <fct>        <dbl>     <dbl>      <dbl>
 1 136527    71 Yes     35.9       8 No              45       9            2
 2 139820    45 No      33.3       1 No              30       6.5          1
 3 140430    48 Yes     24.2       4 No              40       7            9
 4 134088    55 No      29.6       7 No              60       7            1
 5 130500    60 Yes     30.6       2 No             120       7            5
 6 133024    69 Yes     23.2       1 No              60       7            3
 7 133487    77 No      30.5       2 Borderline       5       9.5          1
 8 132785    27 Yes     29.7       1 No              30       8            8
 9 132639    22 No      32.2       4 No              45       5.5          5
10 130642    43 No      31.5       1 No              30       7.5         11
# ℹ 1,990 more rows
# ℹ 2 more variables: depr_func <ord>, check <fct>
…
