Average Poor Mental Health Days Increase from 2019 to 2025
…
chr_2025 <- chr_2025 |> droplevels()

saveRDS(chr_2025, file = "chr_2025_LaurenSapienza.rds")

9 Print the Tibble

Code

chr_2025

# A tibble: 505 × 11
   fipscode state county     pre_mort uninsured poor_health rural_grp prop_rural
   <chr>    <fct> <chr>         <dbl>     <dbl>       <dbl> <fct>          <dbl>
 1 18001    IN    Adams Cou…     398.     13.9         24.1 <NA>            70.8
 2 18003    IN    Allen Cou…     439.      8.14        18.5 Low             12.9
 3 18005    IN    Bartholom…     452.      7.63        16.8 Low             30.7
 4 18007    IN    Benton Co…     512.      9.74        22   High           100  
 5 18009    IN    Blackford…     653.      7.88        21.2 Low             49.3
 6 18011    IN    Boone Cou…     314.      5.10        14.8 Low             27.2
 7 18013    IN    Brown Cou…     417.      7.75        16.6 High           100  
 8 18015    IN    Carroll C…     365.      9.68        17.7 High            94.6
 9 18017    IN    Cass Coun…     471.      9.41        21.4 Low             46.2
10 18019    IN    Clark Cou…     566.      7.43        19   Low             21.3
# ℹ 495 more rows
# ℹ 3 more variables: mental_2025 <dbl>, mental_2019 <dbl>,
#   county_clustered <dbl>
…
